EMViewsMaker                                0     DEBUG Property update for OutputLevel : new value = 2
EMViewsMaker                                0     DEBUG input handles: 1
EMViewsMaker                                0     DEBUG output handles: 2
EMViewsMaker                                0     DEBUG Data Deps for EMViewsMaker
EMViewsMaker                                0     DEBUG input handles: 1
EMViewsMaker                                0     DEBUG output handles: 2
EMViewsMaker                                0     DEBUG Data Deps for EMViewsMaker
EMViewsMaker                            0   0     DEBUG Placed RoICollection with a single RoI  RoIid: 0 RoIword: 1	 z: 0 (-225 - 225) eta: -0.6 (-0.7 - -0.5) phi: 0.2 (0.1 - 0.3) in the view EMViewsMaker_view_0
EMViewsMaker                            0   0     DEBUG Placed RoICollection with a single RoI  RoIid: 0 RoIword: 1	 z: 0 (-225 - 225) eta: 1 (0.9 - 1.1) phi: -1.1 (-1.2 - -1) in the view EMViewsMaker_view_1
EMViewsMaker                            0   0     DEBUG Execution in 2 Views performed
EMViewsMaker                            0   0     DEBUG Recorded views under the key: EMClusterViews
algInView                               0   0     DEBUG .. The alg operates on the view EMViewsMaker_view_0
algInView                               0   0     DEBUG .. The alg operates on the view EMViewsMaker_view_1
EMViewsMaker                            2   0     DEBUG Placed RoICollection with a single RoI  RoIid: 0 RoIword: 2	 z: 0 (-225 - 225) eta: -0.6 (-0.7 - -0.5) phi: 1.5 (1.4 - 1.6) in the view EMViewsMaker_view_0
EMViewsMaker                            2   0     DEBUG Execution in 1 Views performed
EMViewsMaker                            2   0     DEBUG Recorded views under the key: EMClusterViews
algInView                               2   0     DEBUG .. The alg operates on the view EMViewsMaker_view_0
EMViewsMaker                            3   0     DEBUG Placed RoICollection with a single RoI  RoIid: 0 RoIword: 3	 z: 0 (-225 - 225) eta: -1 (-1.1 - -0.9) phi: -1 (-1.1 - -0.9) in the view EMViewsMaker_view_0
EMViewsMaker                            3   0     DEBUG Execution in 1 Views performed
EMViewsMaker                            3   0     DEBUG Recorded views under the key: EMClusterViews
algInView                               3   0     DEBUG .. The alg operates on the view EMViewsMaker_view_0
